CLASSGROUP	select 'CLASSGROUP'    || chr(9) || '-'  || chr(9) || count(1) from CLASSGROUP where CLASSGCD in (select CLASSGCD from CLASS_GROUP where YEAR<='&1');
BASICINFO	select 'BASICINFO'     || chr(9) || '-'  || chr(9) || count(1) from BASICINFO where INDIVIDUALID in (select distinct INDIVIDUALID from HISTORYINFO where YEAR<='&1' MINUS select distinct INDIVIDUALID from HISTORYINFO where INDIVIDUALID in (select INDIVIDUALID from HISTORYINFO where NOT YEAR<='&1') and YEAR<='&1');
DETERMHISTORY	select 'DETERMHISTORY' || chr(9) || '-'  || chr(9) || count(1) from DETERMHISTORY where INDIVIDUALID in (select distinct INDIVIDUALID from HISTORYINFO where YEAR<='&1' MINUS select distinct INDIVIDUALID from HISTORYINFO where INDIVIDUALID in (select INDIVIDUALID from HISTORYINFO where NOT YEAR<='&1') and YEAR<='&1');
EXAMPLANUNIV	select 'EXAMPLANUNIV'  || chr(9) || '-'  || chr(9) || count(1) from EXAMPLANUNIV where INDIVIDUALID in (select distinct INDIVIDUALID from HISTORYINFO where YEAR<='&1' MINUS select distinct INDIVIDUALID from HISTORYINFO where INDIVIDUALID in (select INDIVIDUALID from HISTORYINFO where NOT YEAR<='&1') and YEAR<='&1');
HANGUPPROVISO	select 'HANGUPPROVISO' || chr(9) || '-'  || chr(9) || count(1) from HANGUPPROVISO where INDIVIDUALID in (select distinct INDIVIDUALID from HISTORYINFO where YEAR<='&1' MINUS select distinct INDIVIDUALID from HISTORYINFO where INDIVIDUALID in (select INDIVIDUALID from HISTORYINFO where NOT YEAR<='&1') and YEAR<='&1');
INTERVIEW	select 'INTERVIEW'     || chr(9) || '-'  || chr(9) || count(1) from INTERVIEW where INDIVIDUALID in (select distinct INDIVIDUALID from HISTORYINFO where YEAR<='&1' MINUS select distinct INDIVIDUALID from HISTORYINFO where INDIVIDUALID in (select INDIVIDUALID from HISTORYINFO where NOT YEAR<='&1') and YEAR<='&1');
CLASS_GROUP	select 'CLASS_GROUP'   || chr(9) || YEAR || chr(9) || count(1) from CLASS_GROUP group by YEAR order by YEAR;
HISTORYINFO	select 'HISTORYINFO'   || chr(9) || YEAR || chr(9) || count(1) from HISTORYINFO group by YEAR order by YEAR;
