CANDIDATERATING	EXAMYEAR
CANDIDATERATING_PP	EXAMYEAR
INDIVIDUALRECORD	EXAMYEAR
INDIVIDUALRECORD_TMP	EXAMYEAR
QRECORD_I	EXAMYEAR
QRECORD_PP	EXAMYEAR
SUBRECORD_I	EXAMYEAR
SUBRECORD_PP	EXAMYEAR
EXAMTAKENUM_A	EXAMYEAR
EXAMTAKENUM_C	EXAMYEAR
EXAMTAKENUM_P	EXAMYEAR
EXAMTAKENUM_S	EXAMYEAR
MARKQSCORERATE	EXAMYEAR
QRECORD_A	EXAMYEAR
QRECORD_C	EXAMYEAR
QRECORD_P	EXAMYEAR
QRECORD_S	EXAMYEAR
QRECORDZONE	EXAMYEAR
RATINGNUMBER_A	EXAMYEAR
RATINGNUMBER_C	EXAMYEAR
RATINGNUMBER_P	EXAMYEAR
RATINGNUMBER_S	EXAMYEAR
SUBDISTRECORD_A	EXAMYEAR
SUBDISTRECORD_C	EXAMYEAR
SUBDISTRECORD_P	EXAMYEAR
SUBDISTRECORD_S	EXAMYEAR
SUBRECORD_A	EXAMYEAR
SUBRECORD_C	EXAMYEAR
SUBRECORD_P	EXAMYEAR
SUBRECORD_S	EXAMYEAR
